{
  "name": "Orchestrator_AssetLoader_GoogleSheet",
  "description": "Creates Assets in Orchestrator",
  "main": "Before_Main.xaml",
  "dependencies": {
    "UiPath.Credentials.Activities": "[1.1.6479.13204]",
    "UiPath.Excel.Activities": "[2.5.4]",
    "UiPath.GSuite.Activities": "1.3.1",
    "UiPath.Mail.Activities": "[1.4.1]",
    "UiPath.System.Activities": "[19.4.1]",
    "UiPath.UIAutomation.Activities": "[19.4.2]",
    "UiPath.WebAPI.Activities": "1.4.4",
    "UiPathTeam.Orchestrator.Release.Activities": "1.0.7150.21087"
  },
  "webServices": [],
  "schemaVersion": "4.0",
  "studioVersion": "19.10.1.0",
  "projectVersion": "1.0.0",
  "runtimeOptions": {
    "autoDispose": false,
    "isPausable": true,
    "requiresUserInteraction": true,
    "supportsPersistence": false,
    "excludedLoggedData": [
      "Private:*",
      "*password*"
    ],
    "executionType": "Workflow"
  },
  "designOptions": {
    "projectProfile": "Developement",
    "outputType": "Process",
    "libraryOptions": {
      "includeOriginalXaml": false,
      "privateWorkflows": []
    },
    "fileInfos": []
  },
  "expressionLanguage": "VisualBasic"
}