{
  "Packages": [
    {
      "Package": {
        "Id": "UiPath.Credentials.Activities",
        "Version": "1.1.6479.13204"
      },
      "Assemblies": [
        "C:\\Users\\zipe0376\\.nuget\\packages\\credentialmanagement/1.0.2\\lib/net35/CredentialManagement.dll",
        "C:\\Users\\zipe0376\\.nuget\\packages\\uipath.credentials.activities/1.1.6479.13204\\lib/net40-client/UiPath.Credentials.Activities.dll"
      ]
    },
    {
      "Package": {
        "Id": "UiPath.Excel.Activities",
        "Version": "2.5.4"
      },
      "Assemblies": [
        "C:\\Users\\zipe0376\\.nuget\\packages\\closedxml/0.87.1\\lib/net40/ClosedXML.dll",
        "C:\\Users\\zipe0376\\.nuget\\packages\\csvhelper/2.13.5\\lib/net40-client/CsvHelper.dll",
        "C:\\Users\\zipe0376\\.nuget\\packages\\documentformat.openxml/2.5.0\\lib/DocumentFormat.OpenXml.dll",
        "C:\\Users\\zipe0376\\.nuget\\packages\\microsoft.visualstudio.ole.interop/7.10.6071\\lib/Microsoft.VisualStudio.OLE.Interop.dll",
        "C:\\Users\\zipe0376\\.nuget\\packages\\npoi/2.4.1\\lib/net45/NPOI.OOXML.dll",
        "C:\\Users\\zipe0376\\.nuget\\packages\\npoi/2.4.1\\lib/net45/NPOI.OpenXml4Net.dll",
        "C:\\Users\\zipe0376\\.nuget\\packages\\npoi/2.4.1\\lib/net45/NPOI.OpenXmlFormats.dll",
        "C:\\Users\\zipe0376\\.nuget\\packages\\npoi/2.4.1\\lib/net45/NPOI.dll",
        "C:\\Users\\zipe0376\\.nuget\\packages\\sharpziplib/1.0.0\\lib/net45/ICSharpCode.SharpZipLib.dll",
        "C:\\Users\\zipe0376\\.nuget\\packages\\uipath.excel.activities/2.5.4\\lib/net452/UiPath.Excel.Activities.Design.dll",
        "C:\\Users\\zipe0376\\.nuget\\packages\\uipath.excel.activities/2.5.4\\lib/net452/UiPath.Excel.Activities.dll",
        "C:\\Users\\zipe0376\\.nuget\\packages\\uipath.excel.activities/2.5.4\\lib/net452/UiPath.Excel.dll"
      ]
    },
    {
      "Package": {
        "Id": "UiPath.GSuite.Activities",
        "Version": "1.3.1"
      },
      "Assemblies": [
        "C:\\Users\\zipe0376\\.nuget\\packages\\bouncycastle/1.8.5\\lib/BouncyCastle.Crypto.dll",
        "C:\\Users\\zipe0376\\.nuget\\packages\\google.apis/1.40.2\\lib/net45/Google.Apis.PlatformServices.dll",
        "C:\\Users\\zipe0376\\.nuget\\packages\\google.apis/1.40.2\\lib/net45/Google.Apis.dll",
        "C:\\Users\\zipe0376\\.nuget\\packages\\google.apis.auth/1.40.2\\lib/net45/Google.Apis.Auth.PlatformServices.dll",
        "C:\\Users\\zipe0376\\.nuget\\packages\\google.apis.auth/1.40.2\\lib/net45/Google.Apis.Auth.dll",
        "C:\\Users\\zipe0376\\.nuget\\packages\\google.apis.calendar.v3/1.40.2.1611\\lib/net45/Google.Apis.Calendar.v3.dll",
        "C:\\Users\\zipe0376\\.nuget\\packages\\google.apis.core/1.40.2\\lib/net45/Google.Apis.Core.dll",
        "C:\\Users\\zipe0376\\.nuget\\packages\\google.apis.docs.v1/1.40.2.1615\\lib/net45/Google.Apis.Docs.v1.dll",
        "C:\\Users\\zipe0376\\.nuget\\packages\\google.apis.drive.v3/1.40.2.1610\\lib/net45/Google.Apis.Drive.v3.dll",
        "C:\\Users\\zipe0376\\.nuget\\packages\\google.apis.gmail.v1/1.40.2.1613\\lib/net45/Google.Apis.Gmail.v1.dll",
        "C:\\Users\\zipe0376\\.nuget\\packages\\google.apis.sheets.v4/1.40.2.1614\\lib/net45/Google.Apis.Sheets.v4.dll",
        "C:\\Users\\zipe0376\\.nuget\\packages\\mimekit/2.2.0\\lib/net45/MimeKit.dll",
        "C:\\Users\\zipe0376\\.nuget\\packages\\newtonsoft.json/11.0.2\\lib/net45/Newtonsoft.Json.dll",
        "C:\\Users\\zipe0376\\.nuget\\packages\\nodatime/2.4.6\\lib/net45/NodaTime.dll",
        "C:\\Users\\zipe0376\\.nuget\\packages\\uipath.gsuite.activities/1.3.1\\lib/net461/UiPath.GSuite.Activities.Design.dll",
        "C:\\Users\\zipe0376\\.nuget\\packages\\uipath.gsuite.activities/1.3.1\\lib/net461/UiPath.GSuite.Activities.dll",
        "C:\\Users\\zipe0376\\.nuget\\packages\\uipath.gsuite.activities/1.3.1\\lib/net461/UiPath.GSuite.dll"
      ]
    },
    {
      "Package": {
        "Id": "UiPath.Mail.Activities",
        "Version": "1.4.1"
      },
      "Assemblies": [
        "C:\\Users\\zipe0376\\.nuget\\packages\\bouncycastle/1.8.5\\lib/BouncyCastle.Crypto.dll",
        "C:\\Users\\zipe0376\\.nuget\\packages\\interop.domino.dll/1.0.0\\lib/Interop.Domino.dll",
        "C:\\Users\\zipe0376\\.nuget\\packages\\microsoft.exchange.webservices/2.2.0\\lib/40/Microsoft.Exchange.WebServices.Auth.dll",
        "C:\\Users\\zipe0376\\.nuget\\packages\\microsoft.exchange.webservices/2.2.0\\lib/40/Microsoft.Exchange.WebServices.dll",
        "C:\\Users\\zipe0376\\.nuget\\packages\\uipath.mail.activities/1.4.1\\lib/net452/MailKit.dll",
        "C:\\Users\\zipe0376\\.nuget\\packages\\uipath.mail.activities/1.4.1\\lib/net452/MimeKit.dll",
        "C:\\Users\\zipe0376\\.nuget\\packages\\uipath.mail.activities/1.4.1\\lib/net452/UiPath.Mail.Activities.Design.dll",
        "C:\\Users\\zipe0376\\.nuget\\packages\\uipath.mail.activities/1.4.1\\lib/net452/UiPath.Mail.Activities.dll",
        "C:\\Users\\zipe0376\\.nuget\\packages\\uipath.mail.activities/1.4.1\\lib/net452/UiPath.Mail.dll"
      ]
    },
    {
      "Package": {
        "Id": "UiPath.System.Activities",
        "Version": "19.4.1"
      },
      "Assemblies": [
        "C:\\Users\\zipe0376\\.nuget\\packages\\csvhelper/2.13.5\\lib/net40-client/CsvHelper.dll",
        "C:\\Users\\zipe0376\\.nuget\\packages\\microsoft.aspnet.signalr.client/2.4.0\\lib/net45/Microsoft.AspNet.SignalR.Client.dll",
        "C:\\Users\\zipe0376\\.nuget\\packages\\microsoft.rest.clientruntime/2.3.10\\lib/net452/Microsoft.Rest.ClientRuntime.dll",
        "C:\\Users\\zipe0376\\.nuget\\packages\\newtonsoft.json/11.0.2\\lib/net45/Newtonsoft.Json.dll",
        "C:\\Users\\zipe0376\\.nuget\\packages\\uipath.system.activities/19.4.1\\lib/net461/ActiproSoftware.Docking.Wpf.dll",
        "C:\\Users\\zipe0376\\.nuget\\packages\\uipath.system.activities/19.4.1\\lib/net461/ActiproSoftware.Ribbon.Wpf.dll",
        "C:\\Users\\zipe0376\\.nuget\\packages\\uipath.system.activities/19.4.1\\lib/net461/ActiproSoftware.Shared.Wpf.dll",
        "C:\\Users\\zipe0376\\.nuget\\packages\\uipath.system.activities/19.4.1\\lib/net461/ActiproSoftware.SyntaxEditor.Addons.DotNet.Wpf.dll",
        "C:\\Users\\zipe0376\\.nuget\\packages\\uipath.system.activities/19.4.1\\lib/net461/ActiproSoftware.SyntaxEditor.Wpf.dll",
        "C:\\Users\\zipe0376\\.nuget\\packages\\uipath.system.activities/19.4.1\\lib/net461/ActiproSoftware.Text.Addons.DotNet.Wpf.dll",
        "C:\\Users\\zipe0376\\.nuget\\packages\\uipath.system.activities/19.4.1\\lib/net461/ActiproSoftware.Text.LLParser.Wpf.dll",
        "C:\\Users\\zipe0376\\.nuget\\packages\\uipath.system.activities/19.4.1\\lib/net461/ActiproSoftware.Text.Wpf.dll",
        "C:\\Users\\zipe0376\\.nuget\\packages\\uipath.system.activities/19.4.1\\lib/net461/ActiproSoftware.Wizard.Wpf.dll",
        "C:\\Users\\zipe0376\\.nuget\\packages\\uipath.system.activities/19.4.1\\lib/net461/UiPath.OrchestratorClient.dll",
        "C:\\Users\\zipe0376\\.nuget\\packages\\uipath.system.activities/19.4.1\\lib/net461/UiPath.System.Activities.Design.dll",
        "C:\\Users\\zipe0376\\.nuget\\packages\\uipath.system.activities/19.4.1\\lib/net461/UiPath.System.Activities.dll"
      ]
    },
    {
      "Package": {
        "Id": "UiPath.UIAutomation.Activities",
        "Version": "19.4.2"
      },
      "Assemblies": [
        "C:\\Users\\zipe0376\\.nuget\\packages\\avalonedit/5.0.3\\lib/Net40/ICSharpCode.AvalonEdit.dll",
        "C:\\Users\\zipe0376\\.nuget\\packages\\extended.wpf.toolkit/2.8.0\\lib/net40/Xceed.Wpf.AvalonDock.Themes.Aero.dll",
        "C:\\Users\\zipe0376\\.nuget\\packages\\extended.wpf.toolkit/2.8.0\\lib/net40/Xceed.Wpf.AvalonDock.Themes.Metro.dll",
        "C:\\Users\\zipe0376\\.nuget\\packages\\extended.wpf.toolkit/2.8.0\\lib/net40/Xceed.Wpf.AvalonDock.Themes.VS2010.dll",
        "C:\\Users\\zipe0376\\.nuget\\packages\\extended.wpf.toolkit/2.8.0\\lib/net40/Xceed.Wpf.AvalonDock.dll",
        "C:\\Users\\zipe0376\\.nuget\\packages\\extended.wpf.toolkit/2.8.0\\lib/net40/Xceed.Wpf.DataGrid.dll",
        "C:\\Users\\zipe0376\\.nuget\\packages\\extended.wpf.toolkit/2.8.0\\lib/net40/Xceed.Wpf.Toolkit.dll",
        "C:\\Users\\zipe0376\\.nuget\\packages\\humanizer.core/2.4.2\\lib/netstandard2.0/Humanizer.dll",
        "C:\\Users\\zipe0376\\.nuget\\packages\\uipath/19.4.7068.19937\\lib/UiPath.Interop.dll",
        "C:\\Users\\zipe0376\\.nuget\\packages\\uipath.uiautomation.activities/19.4.2\\lib/net461/ActiproSoftware.DataGrid.Contrib.Wpf.dll",
        "C:\\Users\\zipe0376\\.nuget\\packages\\uipath.uiautomation.activities/19.4.2\\lib/net461/ActiproSoftware.Docking.Wpf.dll",
        "C:\\Users\\zipe0376\\.nuget\\packages\\uipath.uiautomation.activities/19.4.2\\lib/net461/ActiproSoftware.Editors.Wpf.dll",
        "C:\\Users\\zipe0376\\.nuget\\packages\\uipath.uiautomation.activities/19.4.2\\lib/net461/ActiproSoftware.Ribbon.Wpf.dll",
        "C:\\Users\\zipe0376\\.nuget\\packages\\uipath.uiautomation.activities/19.4.2\\lib/net461/ActiproSoftware.Shared.Wpf.dll",
        "C:\\Users\\zipe0376\\.nuget\\packages\\uipath.uiautomation.activities/19.4.2\\lib/net461/ActiproSoftware.SyntaxEditor.Addons.DotNet.Wpf.dll",
        "C:\\Users\\zipe0376\\.nuget\\packages\\uipath.uiautomation.activities/19.4.2\\lib/net461/ActiproSoftware.SyntaxEditor.Wpf.dll",
        "C:\\Users\\zipe0376\\.nuget\\packages\\uipath.uiautomation.activities/19.4.2\\lib/net461/ActiproSoftware.Text.Addons.DotNet.Wpf.dll",
        "C:\\Users\\zipe0376\\.nuget\\packages\\uipath.uiautomation.activities/19.4.2\\lib/net461/ActiproSoftware.Text.LLParser.Wpf.dll",
        "C:\\Users\\zipe0376\\.nuget\\packages\\uipath.uiautomation.activities/19.4.2\\lib/net461/ActiproSoftware.Text.Wpf.dll",
        "C:\\Users\\zipe0376\\.nuget\\packages\\uipath.uiautomation.activities/19.4.2\\lib/net461/ActiproSoftware.Wizard.Wpf.dll",
        "C:\\Users\\zipe0376\\.nuget\\packages\\uipath.uiautomation.activities/19.4.2\\lib/net461/UiPath.UIAutomation.Activities.Design.dll",
        "C:\\Users\\zipe0376\\.nuget\\packages\\uipath.uiautomation.activities/19.4.2\\lib/net461/UiPath.UiAutomation.Activities.dll",
        "C:\\Users\\zipe0376\\.nuget\\packages\\uipath.uiautomation.activities/19.4.2\\lib/net461/UiPath.Wizards.dll",
        "C:\\Users\\zipe0376\\.nuget\\packages\\uipath.vision/1.5.0\\lib/net452/UiPath.Vision.AbbyyCloud.dll",
        "C:\\Users\\zipe0376\\.nuget\\packages\\uipath.vision/1.5.0\\lib/net452/UiPath.Vision.AbbyyFRE11.dll",
        "C:\\Users\\zipe0376\\.nuget\\packages\\uipath.vision/1.5.0\\lib/net452/UiPath.Vision.AbbyyFRE12.dll",
        "C:\\Users\\zipe0376\\.nuget\\packages\\uipath.vision/1.5.0\\lib/net452/UiPath.Vision.AbbyyFRECommon.dll",
        "C:\\Users\\zipe0376\\.nuget\\packages\\uipath.vision/1.5.0\\lib/net452/UiPath.Vision.AzureComputerVision.dll",
        "C:\\Users\\zipe0376\\.nuget\\packages\\uipath.vision/1.5.0\\lib/net452/UiPath.Vision.Core.dll",
        "C:\\Users\\zipe0376\\.nuget\\packages\\uipath.vision/1.5.0\\lib/net452/UiPath.Vision.GoogleCloud.dll",
        "C:\\Users\\zipe0376\\.nuget\\packages\\uipath.vision/1.5.0\\lib/net452/UiPath.Vision.Microsoft.dll",
        "C:\\Users\\zipe0376\\.nuget\\packages\\uipath.vision/1.5.0\\lib/net452/UiPath.Vision.MicrosoftCloud.dll",
        "C:\\Users\\zipe0376\\.nuget\\packages\\uipath.vision/1.5.0\\lib/net452/UiPath.Vision.Tesseract.dll",
        "C:\\Users\\zipe0376\\.nuget\\packages\\uipath.vision/1.5.0\\lib/net452/UiPath.Vision.dll"
      ]
    },
    {
      "Package": {
        "Id": "UiPath.WebAPI.Activities",
        "Version": "1.4.4"
      },
      "Assemblies": [
        "C:\\Users\\zipe0376\\.nuget\\packages\\avalonedit/5.0.3\\lib/Net40/ICSharpCode.AvalonEdit.dll",
        "C:\\Users\\zipe0376\\.nuget\\packages\\newtonsoft.json/11.0.2\\lib/net45/Newtonsoft.Json.dll",
        "C:\\Users\\zipe0376\\.nuget\\packages\\restsharp/106.3.1\\lib/net452/RestSharp.dll",
        "C:\\Users\\zipe0376\\.nuget\\packages\\uipath.webapi.activities/1.4.4\\lib/net452/UiPath.Web.Activities.Design.dll",
        "C:\\Users\\zipe0376\\.nuget\\packages\\uipath.webapi.activities/1.4.4\\lib/net452/UiPath.Web.Activities.dll",
        "C:\\Users\\zipe0376\\.nuget\\packages\\uipath.webapi.activities/1.4.4\\lib/net452/UiPath.Web.dll"
      ]
    },
    {
      "Package": {
        "Id": "UiPathTeam.Orchestrator.Release.Activities",
        "Version": "1.0.7150.21087"
      },
      "Assemblies": [
        "C:\\Users\\zipe0376\\.nuget\\packages\\uipathteam.orchestrator.release.activities/1.0.7150.21087\\lib/net451/Newtonsoft.Json.dll",
        "C:\\Users\\zipe0376\\.nuget\\packages\\uipathteam.orchestrator.release.activities/1.0.7150.21087\\lib/net451/Orchestrator.dll",
        "C:\\Users\\zipe0376\\.nuget\\packages\\uipathteam.orchestrator.release.activities/1.0.7150.21087\\lib/net451/OrchestratorActivity.Design.dll"
      ]
    }
  ],
  "Conflicts": [],
  "ResolvedDependencies": {
    "AvalonEdit": {
      "Id": "AvalonEdit",
      "Version": "5.0.3",
      "Dependencies": []
    },
    "BouncyCastle": {
      "Id": "BouncyCastle",
      "Version": "1.8.5",
      "Dependencies": []
    },
    "ClosedXML": {
      "Id": "ClosedXML",
      "Version": "0.87.1",
      "Dependencies": [
        {
          "Item1": "DocumentFormat.OpenXml",
          "Item2": "[2.5.0, )"
        }
      ]
    },
    "CredentialManagement": {
      "Id": "CredentialManagement",
      "Version": "1.0.2",
      "Dependencies": []
    },
    "CsvHelper": {
      "Id": "CsvHelper",
      "Version": "2.13.5",
      "Dependencies": []
    },
    "DocumentFormat.OpenXml": {
      "Id": "DocumentFormat.OpenXml",
      "Version": "2.5.0",
      "Dependencies": []
    },
    "Extended.Wpf.Toolkit": {
      "Id": "Extended.Wpf.Toolkit",
      "Version": "2.8.0",
      "Dependencies": []
    },
    "Google.Apis": {
      "Id": "Google.Apis",
      "Version": "1.40.2",
      "Dependencies": [
        {
          "Item1": "Google.Apis.Core",
          "Item2": "[1.40.2, )"
        },
        {
          "Item1": "Newtonsoft.Json",
          "Item2": "[10.0.2, )"
        }
      ]
    },
    "Google.Apis.Auth": {
      "Id": "Google.Apis.Auth",
      "Version": "1.40.2",
      "Dependencies": [
        {
          "Item1": "Google.Apis.Core",
          "Item2": "[1.40.2, )"
        },
        {
          "Item1": "Google.Apis",
          "Item2": "[1.40.2, )"
        }
      ]
    },
    "Google.Apis.Calendar.v3": {
      "Id": "Google.Apis.Calendar.v3",
      "Version": "1.40.2.1611",
      "Dependencies": [
        {
          "Item1": "Google.Apis",
          "Item2": "[1.40.2, )"
        },
        {
          "Item1": "Google.Apis.Auth",
          "Item2": "[1.40.2, )"
        }
      ]
    },
    "Google.Apis.Core": {
      "Id": "Google.Apis.Core",
      "Version": "1.40.2",
      "Dependencies": [
        {
          "Item1": "Newtonsoft.Json",
          "Item2": "[10.0.2, )"
        }
      ]
    },
    "Google.Apis.Docs.v1": {
      "Id": "Google.Apis.Docs.v1",
      "Version": "1.40.2.1615",
      "Dependencies": [
        {
          "Item1": "Google.Apis",
          "Item2": "[1.40.2, )"
        },
        {
          "Item1": "Google.Apis.Auth",
          "Item2": "[1.40.2, )"
        }
      ]
    },
    "Google.Apis.Drive.v3": {
      "Id": "Google.Apis.Drive.v3",
      "Version": "1.40.2.1610",
      "Dependencies": [
        {
          "Item1": "Google.Apis",
          "Item2": "[1.40.2, )"
        },
        {
          "Item1": "Google.Apis.Auth",
          "Item2": "[1.40.2, )"
        }
      ]
    },
    "Google.Apis.Gmail.v1": {
      "Id": "Google.Apis.Gmail.v1",
      "Version": "1.40.2.1613",
      "Dependencies": [
        {
          "Item1": "Google.Apis",
          "Item2": "[1.40.2, )"
        },
        {
          "Item1": "Google.Apis.Auth",
          "Item2": "[1.40.2, )"
        }
      ]
    },
    "Google.Apis.Sheets.v4": {
      "Id": "Google.Apis.Sheets.v4",
      "Version": "1.40.2.1614",
      "Dependencies": [
        {
          "Item1": "Google.Apis",
          "Item2": "[1.40.2, )"
        },
        {
          "Item1": "Google.Apis.Auth",
          "Item2": "[1.40.2, )"
        }
      ]
    },
    "Humanizer.Core": {
      "Id": "Humanizer.Core",
      "Version": "2.4.2",
      "Dependencies": []
    },
    "interop.domino.dll": {
      "Id": "interop.domino.dll",
      "Version": "1.0.0",
      "Dependencies": []
    },
    "Microsoft.AspNet.SignalR.Client": {
      "Id": "Microsoft.AspNet.SignalR.Client",
      "Version": "2.4.0",
      "Dependencies": [
        {
          "Item1": "Newtonsoft.Json",
          "Item2": "[6.0.4, )"
        }
      ]
    },
    "Microsoft.Exchange.WebServices": {
      "Id": "Microsoft.Exchange.WebServices",
      "Version": "2.2.0",
      "Dependencies": []
    },
    "Microsoft.Rest.ClientRuntime": {
      "Id": "Microsoft.Rest.ClientRuntime",
      "Version": "2.3.10",
      "Dependencies": [
        {
          "Item1": "Newtonsoft.Json",
          "Item2": "[6.0.8, )"
        }
      ]
    },
    "Microsoft.VisualStudio.OLE.Interop": {
      "Id": "Microsoft.VisualStudio.OLE.Interop",
      "Version": "7.10.6071",
      "Dependencies": []
    },
    "MimeKit": {
      "Id": "MimeKit",
      "Version": "2.2.0",
      "Dependencies": [
        {
          "Item1": "BouncyCastle",
          "Item2": "[1.8.5, )"
        }
      ]
    },
    "Newtonsoft.Json": {
      "Id": "Newtonsoft.Json",
      "Version": "11.0.2",
      "Dependencies": []
    },
    "NodaTime": {
      "Id": "NodaTime",
      "Version": "2.4.6",
      "Dependencies": []
    },
    "NPOI": {
      "Id": "NPOI",
      "Version": "2.4.1",
      "Dependencies": [
        {
          "Item1": "SharpZipLib",
          "Item2": "[1.0.0, )"
        }
      ]
    },
    "RestSharp": {
      "Id": "RestSharp",
      "Version": "106.3.1",
      "Dependencies": []
    },
    "SharpZipLib": {
      "Id": "SharpZipLib",
      "Version": "1.0.0",
      "Dependencies": []
    },
    "UiPath": {
      "Id": "UiPath",
      "Version": "19.4.7068.19937",
      "Dependencies": []
    },
    "UiPath.Credentials.Activities": {
      "Id": "UiPath.Credentials.Activities",
      "Version": "1.1.6479.13204",
      "Dependencies": [
        {
          "Item1": "CredentialManagement",
          "Item2": "[1.0.2, )"
        }
      ]
    },
    "UiPath.Excel.Activities": {
      "Id": "UiPath.Excel.Activities",
      "Version": "2.5.4",
      "Dependencies": [
        {
          "Item1": "ClosedXML",
          "Item2": "[0.87.1, )"
        },
        {
          "Item1": "CsvHelper",
          "Item2": "[2.13.5, )"
        },
        {
          "Item1": "DocumentFormat.OpenXml",
          "Item2": "[2.5.0, )"
        },
        {
          "Item1": "Microsoft.VisualStudio.OLE.Interop",
          "Item2": "[7.10.6071, )"
        },
        {
          "Item1": "NPOI",
          "Item2": "[2.4.1, )"
        },
        {
          "Item1": "SharpZipLib",
          "Item2": "[1.0.0, )"
        }
      ]
    },
    "UiPath.GSuite.Activities": {
      "Id": "UiPath.GSuite.Activities",
      "Version": "1.3.1",
      "Dependencies": [
        {
          "Item1": "Google.Apis",
          "Item2": "[1.40.2, )"
        },
        {
          "Item1": "Google.Apis.Auth",
          "Item2": "[1.40.2, )"
        },
        {
          "Item1": "Google.Apis.Calendar.v3",
          "Item2": "[1.40.2, )"
        },
        {
          "Item1": "Google.Apis.Docs.v1",
          "Item2": "[1.40.2, )"
        },
        {
          "Item1": "Google.Apis.Core",
          "Item2": "[1.40.2, )"
        },
        {
          "Item1": "Google.Apis.Drive.v3",
          "Item2": "[1.40.2, )"
        },
        {
          "Item1": "Google.Apis.Gmail.v1",
          "Item2": "[1.40.2, )"
        },
        {
          "Item1": "Google.Apis.Sheets.v4",
          "Item2": "[1.40.2, )"
        },
        {
          "Item1": "MimeKit",
          "Item2": "[2.2.0, )"
        },
        {
          "Item1": "BouncyCastle",
          "Item2": "[1.8.5, )"
        },
        {
          "Item1": "Newtonsoft.Json",
          "Item2": "[10.0.3, )"
        },
        {
          "Item1": "NodaTime",
          "Item2": "[2.4.6, )"
        }
      ]
    },
    "UiPath.Mail.Activities": {
      "Id": "UiPath.Mail.Activities",
      "Version": "1.4.1",
      "Dependencies": [
        {
          "Item1": "Microsoft.Exchange.WebServices",
          "Item2": "[2.2.0, )"
        },
        {
          "Item1": "BouncyCastle",
          "Item2": "[1.8.1, )"
        },
        {
          "Item1": "interop.domino.dll",
          "Item2": "[1.0.0, )"
        }
      ]
    },
    "UiPath.System.Activities": {
      "Id": "UiPath.System.Activities",
      "Version": "19.4.1",
      "Dependencies": [
        {
          "Item1": "CsvHelper",
          "Item2": "[2.13.5, )"
        },
        {
          "Item1": "Microsoft.AspNet.SignalR.Client",
          "Item2": "[2.4.0, )"
        },
        {
          "Item1": "Microsoft.Rest.ClientRuntime",
          "Item2": "[2.3.10, )"
        },
        {
          "Item1": "Newtonsoft.Json",
          "Item2": "[11.0.2, )"
        }
      ]
    },
    "UiPath.UIAutomation.Activities": {
      "Id": "UiPath.UIAutomation.Activities",
      "Version": "19.4.2",
      "Dependencies": [
        {
          "Item1": "UiPath.Vision",
          "Item2": "[1.5.0, )"
        },
        {
          "Item1": "AvalonEdit",
          "Item2": "[5.0.3, )"
        },
        {
          "Item1": "Extended.Wpf.Toolkit",
          "Item2": "[2.8.0, )"
        },
        {
          "Item1": "Humanizer.Core",
          "Item2": "[2.4.2, )"
        },
        {
          "Item1": "UiPath",
          "Item2": "[19.4.7068.19937, )"
        }
      ]
    },
    "UiPath.Vision": {
      "Id": "UiPath.Vision",
      "Version": "1.5.0",
      "Dependencies": []
    },
    "UiPath.WebAPI.Activities": {
      "Id": "UiPath.WebAPI.Activities",
      "Version": "1.4.4",
      "Dependencies": [
        {
          "Item1": "AvalonEdit",
          "Item2": "[5.0.3, )"
        },
        {
          "Item1": "Newtonsoft.Json",
          "Item2": "[11.0.2, )"
        },
        {
          "Item1": "RestSharp",
          "Item2": "[106.3.1, )"
        }
      ]
    },
    "UiPathTeam.Orchestrator.Release.Activities": {
      "Id": "UiPathTeam.Orchestrator.Release.Activities",
      "Version": "1.0.7150.21087",
      "Dependencies": []
    }
  }
}